appnope==0.1.0
blinker==1.4
decorator==4.0.6
docutils==0.12
feedgenerator==1.7
futures==3.0.3
gnureadline==6.3.3
ipython==4.0.2
ipython-genutils==0.1.0
Jinja2==2.8
MarkupSafe==0.23
msgpack-python==0.4.6
path.py==8.1.2
pelican==3.6.3
pexpect==4.0.1
pickleshare==0.5
ptyprocess==0.5
Pygments==2.1
simplegeneric==0.8.1
smartypants==1.8.6
traitlets==4.1.0
trollius==2.0
typogrify==2.0.7
Unidecode==0.4.18
vboxapi==1.0
virtualenv==13.1.2
wheel==0.26.0
